%YAML 1.1
%TAG !u! tag:unity3d.com,2011:
--- !u!1045 &1
EditorBuildSettings:
  m_ObjectHideFlags: 0
  serializedVersion: 2
  m_Scenes:
  - enabled: 1
    path: Assets/Scenes/menu.unity
    guid: 2ae4b819dc21cfa48a2e25d3a10ec7df
  - enabled: 1
    path: Assets/Scenes/main.unity
    guid: 5c0d65bb6cfdeb2449cbb99da96d46be
  - enabled: 1
    path: Assets/Scenes/dead.unity
    guid: 015c9a3ea1217c046a374f06ce9b5c44
